addMouseListener(new MouseAdapter() {
    public void mousePressed(MouseEvent mEvt) {
    }
        });

public void mousePressed(MouseEvent mEvt) {
                
                System.out.println(mEvt.getClickCount());
                System.out.println("se presiono click dentro del evento");
                a = ma.traerArticuloPorString(comboBoxArticulo.getEditor().getItem().toString());
                //a = ma.traerArticuloPorString(comboBoxArticulo.getSelectedItem().toString());
                //comboBoxDetalleArticulo.requestFocus();
                //mt.agregarArticuloVenta(tablaResumenVenta, modeloTablaResumenPedido ,m);
                System.out.println("ENTRO 1");
                System.out.println("ELEMENTO SELECCIONADO: " + comboBoxArticulo.getEditor().getItem().toString());
                //String comparar = comboBoxArticulo.getEditor().getItem().toString();
                //comboBoxArticulo.getEditor().setItem(a.getDesc_articulo());

                if (a.getId_tipoProd2() == 5) {
                    System.out.println("se selecciono cerveza artesanal");
                    if (ma.comprobarBarril(a.getDesc_articulo())) {
                        System.out.println("hay cerveza " + a.getDesc_articulo());
                        if (hh) {
                            a.setPrecio_venta(ma.traerPrecioHH());
                        }

                        txtCantidad.setEditable(true);
                        txtCantidad.requestFocus();

                    } else {
                        txtCantidad.setEditable(false);
                        JOptionPane.showMessageDialog(null, "NO HAY CERVEZA " + a.getDesc_articulo() + " CARGADA EN LA CHOPERA");
                        //comboBoxArticulo.requestFocus();

                    }
                } else if (a.getId_tipoProd1() == 3) {
                    System.out.println("ES PROMOCION, SE REVISARA SI HAY CERVEZA");
                    ArrayList<Object[]> promocion = ma.traerArticulosPromocion(a.getCodigo());

                    for (int i = 0; i < promocion.size(); i++) {
                        Articulo promo = new Articulo();
                        promo = ma.traerArticuloPorCodigo(promocion.get(i)[0].toString());
                        System.out.println("ARTICULO DE LA PROMO: " + promo.getDesc_articulo());
                        if (promo.getId_tipoProd2() == 5) {
                            System.out.println("se selecciono cerveza artesanal");
                            if (ma.comprobarBarril(promo.getDesc_articulo())) {
                                System.out.println("hay cerveza " + a.getDesc_articulo());
                                txtCantidad.setEditable(true);
                                txtCantidad.requestFocus();

                            } else {
                                txtCantidad.setEditable(false);
                                txtCodigo.requestFocus();
                                JOptionPane.showMessageDialog(null, "NO HAY CERVEZA " + promo.getDesc_articulo() + " CARGADA EN LA CHOPERA");
                            }
                        }
                    }

                } else {
                    txtCantidad.setEditable(true);
                    txtCantidad.requestFocus();
                }
            }














this.comboBoxArticulo.getEditor().getEditorComponent().addMouseListener(new MouseAdapter() {
            public void mouseClicked(MouseEvent mEvt) {
}

        });


        this.comboBoxArticulo.getEditor().getEditorComponent().addKeyListener(new KeyAdapter() {

            public void keyReleased(KeyEvent evt) {
                if ((evt.getKeyCode() == KeyEvent.VK_UP) || (evt.getKeyCode() == KeyEvent.VK_DOWN)) {
                    System.out.println("se apreto el las teclas");
                }
            }
            
            public void keyPressed(KeyEvent evt) {
                if ((evt.getKeyCode() == KeyEvent.VK_UP) || (evt.getKeyCode() == KeyEvent.VK_DOWN)) {

                }
            }

        });  
        
        System.out.println(evt.getActionCommand());