================================                          
 BOSTON BEER & CO.                                        
 CIERRE DE CAJA                  -------------------------------
 Fecha de Cierre: 17/09/2019     Responsable: Boston Beer & Co
                                                          
 VENTAS                  $1600.0 ===============================
 Comida                  $1000.0 -------------------------------
  Hamburguesa            $1000.0                          
 Bebida                   $600.0 -------------------------------
  Cerveza Arte            $600.0                          
                                                          
 COSTOS                     $0.0 ===============================
                                                          
 FACTURACION                     ===============================
 TIPO   VENTAS   COSTOS   TOTAL  -------------------------------
 CONT                                $1600.0|      $0| $1600.0
 =============================== GANANCIA NETA:          $1600.0
 ===============================                          
                                                          
